// Vitest Snapshot v1, https://vitest.dev/guide/snapshot.html

exports[`App 1`] = `
<div
  className="grid grid-cols-2 gap-2"
>
  <div
    className="mb-8 h-full flex flex-col justify-center items-center p-4 rounded-md border border-black"
  >
    <form
      className="flex flex-col gap-2 "
      onSubmit={[Function]}
    >
      <input
        onChange={[Function]}
        placeholder="Name"
        value=""
      />
      <input
        onChange={[Function]}
        type="date"
        value="2024-02-07"
      />
      <button
        className="bg-black rounded-md text-white px-4 py-2"
        type="submit"
      >
        Submit
      </button>
    </form>
  </div>
  <div
    className="grid grid-cols-12 bg-black rounded-md p-4 gap-4"
  />
</div>
`;

exports[`Zodiac 1`] = `
<div
  className="grid grid-cols-12 bg-black rounded-md p-4 gap-4"
/>
`;
